Library/Bee/artifacts/mvdfrm/UnityEngine.UI.ref.dll_F37DC0DEF554539B.mvfrm
Library/Bee/artifacts/mvdfrm/Unity.Burst.Cecil.Mdb.dll_97D8215D71D363E0.mvfrm
Library/Bee/artifacts/mvdfrm/Unity.Burst.Cecil.Pdb.dll_AF2A99CCF0886563.mvfrm
Library/Bee/artifacts/mvdfrm/Unity.Burst.Cecil.Rocks.dll_16F02FD52D57BFE3.mvfrm
Library/Bee/artifacts/mvdfrm/Unity.Burst.Cecil.dll_AA4783718022BFE3.mvfrm
Library/Bee/artifacts/mvdfrm/Unity.Burst.Unsafe.dll_C7E9C49DDCD586C0.mvfrm
Library/Bee/artifacts/mvdfrm/UnityEngine.AIModule.dll_8D09BBF7233FE543.mvfrm
Library/Bee/artifacts/mvdfrm/UnityEngine.AccessibilityModule.dll_B56DC7906F5A2487.mvfrm
Library/Bee/artifacts/mvdfrm/UnityEngine.AndroidJNIModule.dll_9F59C5D983864C81.mvfrm
Library/Bee/artifacts/mvdfrm/UnityEngine.AnimationModule.dll_DCC39B641DF4096D.mvfrm
Library/Bee/artifacts/mvdfrm/UnityEngine.AssetBundleModule.dll_A1F0F13B8E46403B.mvfrm
Library/Bee/artifacts/mvdfrm/UnityEngine.AudioModule.dll_4D112543D85DC71F.mvfrm
Library/Bee/artifacts/mvdfrm/UnityEngine.ClothModule.dll_B3F9823EB27AA603.mvfrm
Library/Bee/artifacts/mvdfrm/UnityEngine.ClusterInputModule.dll_898025EB8AD8C3CB.mvfrm
Library/Bee/artifacts/mvdfrm/UnityEngine.ClusterRendererModule.dll_C54D16B9F2E082A6.mvfrm
Library/Bee/artifacts/mvdfrm/UnityEngine.CoreModule.dll_2CC74C86D05B45FA.mvfrm
Library/Bee/artifacts/mvdfrm/UnityEngine.CrashReportingModule.dll_D852173A18AC59D2.mvfrm
Library/Bee/artifacts/mvdfrm/UnityEngine.DSPGraphModule.dll_DCAE5F99FC0F13B8.mvfrm
Library/Bee/artifacts/mvdfrm/UnityEngine.DirectorModule.dll_D75CFE3089AE4297.mvfrm
Library/Bee/artifacts/mvdfrm/UnityEngine.GIModule.dll_25460504BEEECD5D.mvfrm
Library/Bee/artifacts/mvdfrm/UnityEngine.GameCenterModule.dll_C9A70FF449C73D72.mvfrm
Library/Bee/artifacts/mvdfrm/UnityEngine.GridModule.dll_0A386874E8AFDBF1.mvfrm
Library/Bee/artifacts/mvdfrm/UnityEngine.HotReloadModule.dll_5E0C5969F92724EF.mvfrm
Library/Bee/artifacts/mvdfrm/UnityEngine.IMGUIModule.dll_8570C4AA9E8F5B00.mvfrm
Library/Bee/artifacts/mvdfrm/UnityEngine.ImageConversionModule.dll_313F146A75053A9A.mvfrm
Library/Bee/artifacts/mvdfrm/UnityEngine.InputLegacyModule.dll_33360C5A2637F62C.mvfrm
Library/Bee/artifacts/mvdfrm/UnityEngine.InputModule.dll_B386ECF44E95EBC3.mvfrm
Library/Bee/artifacts/mvdfrm/UnityEngine.JSONSerializeModule.dll_158550CC6E958511.mvfrm
Library/Bee/artifacts/mvdfrm/UnityEngine.LocalizationModule.dll_C7CCF03E2254B6C4.mvfrm
Library/Bee/artifacts/mvdfrm/UnityEngine.ParticleSystemModule.dll_2B64608686BDE560.mvfrm
Library/Bee/artifacts/mvdfrm/UnityEngine.PerformanceReportingModule.dll_4278C939762354B9.mvfrm
Library/Bee/artifacts/mvdfrm/UnityEngine.Physics2DModule.dll_29698B54BEF10102.mvfrm
Library/Bee/artifacts/mvdfrm/UnityEngine.PhysicsModule.dll_47260B42E86A1BD0.mvfrm
Library/Bee/artifacts/mvdfrm/UnityEngine.ProfilerModule.dll_09A337672307C9A4.mvfrm
Library/Bee/artifacts/mvdfrm/UnityEngine.RuntimeInitializeOnLoadManagerInitializerModule.dll_6CC1DD0B320375CB.mvfrm
Library/Bee/artifacts/mvdfrm/UnityEngine.ScreenCaptureModule.dll_2F6CFE518301B173.mvfrm
Library/Bee/artifacts/mvdfrm/UnityEngine.SharedInternalsModule.dll_B550533FEC3335EA.mvfrm
Library/Bee/artifacts/mvdfrm/UnityEngine.SpriteMaskModule.dll_B2D382846B36D2EC.mvfrm
Library/Bee/artifacts/mvdfrm/UnityEngine.SpriteShapeModule.dll_BB521E9643E87845.mvfrm
Library/Bee/artifacts/mvdfrm/UnityEngine.StreamingModule.dll_915888B46D7BC0AB.mvfrm
Library/Bee/artifacts/mvdfrm/UnityEngine.SubstanceModule.dll_6E039CFDB8CEBEB9.mvfrm
Library/Bee/artifacts/mvdfrm/UnityEngine.SubsystemsModule.dll_1D80E8E6397EBAFF.mvfrm
Library/Bee/artifacts/mvdfrm/UnityEngine.TLSModule.dll_0C2CDB327B00F8A4.mvfrm
Library/Bee/artifacts/mvdfrm/UnityEngine.TerrainModule.dll_616C86B1BE2864BE.mvfrm
Library/Bee/artifacts/mvdfrm/UnityEngine.TerrainPhysicsModule.dll_2BDF0959A000DFED.mvfrm
Library/Bee/artifacts/mvdfrm/UnityEngine.TextCoreFontEngineModule.dll_48BA547D0B62D638.mvfrm
Library/Bee/artifacts/mvdfrm/UnityEngine.TextCoreTextEngineModule.dll_90A28AEE9AE68F56.mvfrm
Library/Bee/artifacts/mvdfrm/UnityEngine.TextRenderingModule.dll_58AC705C3A393168.mvfrm
Library/Bee/artifacts/mvdfrm/UnityEngine.TilemapModule.dll_0068EE32D5E545C7.mvfrm
Library/Bee/artifacts/mvdfrm/UnityEngine.UIElementsModule.dll_21BF4A4E3CAAF6F6.mvfrm
Library/Bee/artifacts/mvdfrm/UnityEngine.UIElementsNativeModule.dll_9B9766521FAA7B8D.mvfrm
Library/Bee/artifacts/mvdfrm/UnityEngine.UIModule.dll_887D5A247F86EAEF.mvfrm
Library/Bee/artifacts/mvdfrm/UnityEngine.UNETModule.dll_BF6D94701D6A3B73.mvfrm
Library/Bee/artifacts/mvdfrm/UnityEngine.UmbraModule.dll_C7E5D15C65847292.mvfrm
Library/Bee/artifacts/mvdfrm/UnityEngine.UnityAnalyticsModule.dll_4B03D15032E5375C.mvfrm
Library/Bee/artifacts/mvdfrm/UnityEngine.UnityConnectModule.dll_F74334E4D3D8F1B0.mvfrm
Library/Bee/artifacts/mvdfrm/UnityEngine.UnityCurlModule.dll_0FE03C958E07FB5A.mvfrm
Library/Bee/artifacts/mvdfrm/UnityEngine.UnityTestProtocolModule.dll_C7AE59F7FC5FBCC8.mvfrm
Library/Bee/artifacts/mvdfrm/UnityEngine.UnityWebRequestAssetBundleModule.dll_526DA44B21B77F2D.mvfrm
Library/Bee/artifacts/mvdfrm/UnityEngine.UnityWebRequestAudioModule.dll_BA751D17FC8E1F51.mvfrm
Library/Bee/artifacts/mvdfrm/UnityEngine.UnityWebRequestModule.dll_42DE1C147FF9D519.mvfrm
Library/Bee/artifacts/mvdfrm/UnityEngine.UnityWebRequestTextureModule.dll_624B1DF089EA3946.mvfrm
Library/Bee/artifacts/mvdfrm/UnityEngine.UnityWebRequestWWWModule.dll_5B64D04A8AA64BC2.mvfrm
Library/Bee/artifacts/mvdfrm/UnityEngine.VFXModule.dll_8D0B73A1516E6211.mvfrm
Library/Bee/artifacts/mvdfrm/UnityEngine.VRModule.dll_DB4F80AA21417067.mvfrm
Library/Bee/artifacts/mvdfrm/UnityEngine.VehiclesModule.dll_4F1FF7B003D81232.mvfrm
Library/Bee/artifacts/mvdfrm/UnityEngine.VideoModule.dll_721AA9AE9AEFE2C4.mvfrm
Library/Bee/artifacts/mvdfrm/UnityEngine.VirtualTexturingModule.dll_C0241AC0F858FC18.mvfrm
Library/Bee/artifacts/mvdfrm/UnityEngine.WindModule.dll_A31627AF6191C463.mvfrm
Library/Bee/artifacts/mvdfrm/UnityEngine.XRModule.dll_0E0E43AEAA7BBDC5.mvfrm
Library/Bee/artifacts/mvdfrm/UnityEngine.dll_A8C97C26539EC27B.mvfrm