Library/Bee/artifacts/mvdfrm/Unity.2D.Common.Runtime.ref.dll_42D85E2227B6C2D3.mvfrm
Library/Bee/artifacts/mvdfrm/Unity.Burst.ref.dll_9CE15340CD9598D2.mvfrm
Library/Bee/artifacts/mvdfrm/Unity.InternalAPIEngineBridge.001.ref.dll_B33834AFA753E36D.mvfrm
Library/Bee/artifacts/mvdfrm/Unity.Mathematics.ref.dll_F20355C132B4E278.mvfrm
Library/Bee/artifacts/mvdfrm/UnityEditor.UI.ref.dll_452FB8EBD860BCAB.mvfrm
Library/Bee/artifacts/mvdfrm/UnityEngine.UI.ref.dll_01958F46DE82E516.mvfrm
Library/Bee/artifacts/mvdfrm/Unity.Burst.Cecil.Mdb.dll_97D8215D71D363E0.mvfrm
Library/Bee/artifacts/mvdfrm/Unity.Burst.Cecil.Pdb.dll_AF2A99CCF0886563.mvfrm
Library/Bee/artifacts/mvdfrm/Unity.Burst.Cecil.Rocks.dll_16F02FD52D57BFE3.mvfrm
Library/Bee/artifacts/mvdfrm/Unity.Burst.Cecil.dll_AA4783718022BFE3.mvfrm
Library/Bee/artifacts/mvdfrm/Unity.Burst.Unsafe.dll_C7E9C49DDCD586C0.mvfrm
Library/Bee/artifacts/mvdfrm/Unity.Plastic.Antlr3.Runtime.dll_A0BFD364A55BBFD9.mvfrm
Library/Bee/artifacts/mvdfrm/Unity.Plastic.Newtonsoft.Json.dll_96D3ADEC6D38DF4C.mvfrm
Library/Bee/artifacts/mvdfrm/UnityEditor.Graphs.dll_36B85EC77D572802.mvfrm
Library/Bee/artifacts/mvdfrm/UnityEditor.CoreModule.dll_7A7F28632B8E6DD0.mvfrm
Library/Bee/artifacts/mvdfrm/UnityEditor.DeviceSimulatorModule.dll_A495A28C97E8F8F1.mvfrm
Library/Bee/artifacts/mvdfrm/UnityEditor.DiagnosticsModule.dll_49453C00C84C06FF.mvfrm
Library/Bee/artifacts/mvdfrm/UnityEditor.GraphViewModule.dll_8F57E85CA803C0F6.mvfrm
Library/Bee/artifacts/mvdfrm/UnityEditor.PackageManagerUIModule.dll_BE94B7F34579772C.mvfrm
Library/Bee/artifacts/mvdfrm/UnityEditor.QuickSearchModule.dll_D454BD0E21230358.mvfrm
Library/Bee/artifacts/mvdfrm/UnityEditor.SceneTemplateModule.dll_02345C0941249CD9.mvfrm
Library/Bee/artifacts/mvdfrm/UnityEditor.TextCoreFontEngineModule.dll_F5AEBB1A8DECF54E.mvfrm
Library/Bee/artifacts/mvdfrm/UnityEditor.TextCoreTextEngineModule.dll_3D96F18C1D70AE6C.mvfrm
Library/Bee/artifacts/mvdfrm/UnityEditor.UIBuilderModule.dll_E3E095791ABC3A2A.mvfrm
Library/Bee/artifacts/mvdfrm/UnityEditor.UIElementsModule.dll_A3D772F794510B0C.mvfrm
Library/Bee/artifacts/mvdfrm/UnityEditor.UIElementsSamplesModule.dll_7F8967E3A7800B21.mvfrm
Library/Bee/artifacts/mvdfrm/UnityEditor.UIServiceModule.dll_1CD2A6DC03F38A44.mvfrm
Library/Bee/artifacts/mvdfrm/UnityEditor.UnityConnectModule.dll_EEF0691EF2BA0486.mvfrm
Library/Bee/artifacts/mvdfrm/UnityEditor.dll_BA629BC154DCD2C5.mvfrm
Library/Bee/artifacts/mvdfrm/UnityEngine.AIModule.dll_181CC21E77C4A224.mvfrm
Library/Bee/artifacts/mvdfrm/UnityEngine.AccessibilityModule.dll_34D9C7A0419AC476.mvfrm
Library/Bee/artifacts/mvdfrm/UnityEngine.AndroidJNIModule.dll_22205BCADD7079E2.mvfrm
Library/Bee/artifacts/mvdfrm/UnityEngine.AnimationModule.dll_5DDD64858260959C.mvfrm
Library/Bee/artifacts/mvdfrm/UnityEngine.AssetBundleModule.dll_183DEFFF8389B84A.mvfrm
Library/Bee/artifacts/mvdfrm/UnityEngine.AudioModule.dll_033F7FA750C12F8E.mvfrm
Library/Bee/artifacts/mvdfrm/UnityEngine.ClothModule.dll_6A27DCA22ADE0E72.mvfrm
Library/Bee/artifacts/mvdfrm/UnityEngine.ClusterInputModule.dll_6E8CDE34A441D74C.mvfrm
Library/Bee/artifacts/mvdfrm/UnityEngine.ClusterRendererModule.dll_AA4264FE07A40675.mvfrm
Library/Bee/artifacts/mvdfrm/UnityEngine.CoreModule.dll_9D9FFBB5D393D8FB.mvfrm
Library/Bee/artifacts/mvdfrm/UnityEngine.CrashReportingModule.dll_BC26235C583C5773.mvfrm
Library/Bee/artifacts/mvdfrm/UnityEngine.DSPGraphModule.dll_A8188E433A49DEF9.mvfrm
Library/Bee/artifacts/mvdfrm/UnityEngine.DirectorModule.dll_A2C72CD9C7E90DD8.mvfrm
Library/Bee/artifacts/mvdfrm/UnityEngine.GIModule.dll_B0590B2C13738A3E.mvfrm
Library/Bee/artifacts/mvdfrm/UnityEngine.GameCenterModule.dll_4C6DA5E5A3B16AD3.mvfrm
Library/Bee/artifacts/mvdfrm/UnityEngine.GridModule.dll_7B1117A3EBE86EF2.mvfrm
Library/Bee/artifacts/mvdfrm/UnityEngine.HotReloadModule.dll_DF26228B5D93B11E.mvfrm
Library/Bee/artifacts/mvdfrm/UnityEngine.IMGUIModule.dll_3B9F1F0E16F2C36F.mvfrm
Library/Bee/artifacts/mvdfrm/UnityEngine.ImageConversionModule.dll_163462AE89C8BE69.mvfrm
Library/Bee/artifacts/mvdfrm/UnityEngine.InputLegacyModule.dll_A9830B1E1B7B6E3B.mvfrm
Library/Bee/artifacts/mvdfrm/UnityEngine.InputModule.dll_69B54757C6F95432.mvfrm
Library/Bee/artifacts/mvdfrm/UnityEngine.JSONSerializeModule.dll_94F150DC40D62500.mvfrm
Library/Bee/artifacts/mvdfrm/UnityEngine.LocalizationModule.dll_ACD9A8873BBDCA45.mvfrm
Library/Bee/artifacts/mvdfrm/UnityEngine.ParticleSystemModule.dll_0F386CA8C64DE301.mvfrm
Library/Bee/artifacts/mvdfrm/UnityEngine.PerformanceReportingModule.dll_79492F55B17D28BA.mvfrm
Library/Bee/artifacts/mvdfrm/UnityEngine.Physics2DModule.dll_AA835476235D8D31.mvfrm
Library/Bee/artifacts/mvdfrm/UnityEngine.PhysicsModule.dll_00AFEDF19FB6781F.mvfrm
Library/Bee/artifacts/mvdfrm/UnityEngine.ProfilerModule.dll_D50D6610614294E5.mvfrm
Library/Bee/artifacts/mvdfrm/UnityEngine.RuntimeInitializeOnLoadManagerInitializerModule.dll_A746277E68F2DFFA.mvfrm
Library/Bee/artifacts/mvdfrm/UnityEngine.ScreenCaptureModule.dll_AED8FE6155425162.mvfrm
Library/Bee/artifacts/mvdfrm/UnityEngine.SharedInternalsModule.dll_9A45A18400F6B9B9.mvfrm
Library/Bee/artifacts/mvdfrm/UnityEngine.SpriteMaskModule.dll_359A1875C521004D.mvfrm
Library/Bee/artifacts/mvdfrm/UnityEngine.SpriteShapeModule.dll_319F1D5A392BF054.mvfrm
Library/Bee/artifacts/mvdfrm/UnityEngine.StreamingModule.dll_127251D5D1E84CDA.mvfrm
Library/Bee/artifacts/mvdfrm/UnityEngine.SubstanceModule.dll_EF1D661F1D3B4AE8.mvfrm
Library/Bee/artifacts/mvdfrm/UnityEngine.SubsystemsModule.dll_A0477ED79368E860.mvfrm
Library/Bee/artifacts/mvdfrm/UnityEngine.TLSModule.dll_DFC3E8B1A2232933.mvfrm
Library/Bee/artifacts/mvdfrm/UnityEngine.TerrainModule.dll_1AF669607574C10D.mvfrm
Library/Bee/artifacts/mvdfrm/UnityEngine.TerrainPhysicsModule.dll_0FB3157BDF90DD8E.mvfrm
Library/Bee/artifacts/mvdfrm/UnityEngine.TextCoreFontEngineModule.dll_740E366DA0EAB419.mvfrm
Library/Bee/artifacts/mvdfrm/UnityEngine.TextCoreTextEngineModule.dll_BBF66CDF306E6D37.mvfrm
Library/Bee/artifacts/mvdfrm/UnityEngine.TextRenderingModule.dll_D818706C0C79D157.mvfrm
Library/Bee/artifacts/mvdfrm/UnityEngine.TilemapModule.dll_B9F2D0E18D31A216.mvfrm
Library/Bee/artifacts/mvdfrm/UnityEngine.UIElementsModule.dll_A485E03F96952457.mvfrm
Library/Bee/artifacts/mvdfrm/UnityEngine.UIElementsNativeModule.dll_090E6C88B6F1E74E.mvfrm
Library/Bee/artifacts/mvdfrm/UnityEngine.UIModule.dll_1390604BD40BA7D0.mvfrm
Library/Bee/artifacts/mvdfrm/UnityEngine.UNETModule.dll_3046439F20A2CE74.mvfrm
Library/Bee/artifacts/mvdfrm/UnityEngine.UmbraModule.dll_7E142BBFDDE7DB01.mvfrm
Library/Bee/artifacts/mvdfrm/UnityEngine.UnityAnalyticsModule.dll_2ED7DD72727534FD.mvfrm
Library/Bee/artifacts/mvdfrm/UnityEngine.UnityConnectModule.dll_DC4FED2DED420531.mvfrm
Library/Bee/artifacts/mvdfrm/UnityEngine.UnityCurlModule.dll_90FA05B6F2748789.mvfrm
Library/Bee/artifacts/mvdfrm/UnityEngine.UnityTestProtocolModule.dll_3B4C1DD6017B6077.mvfrm
Library/Bee/artifacts/mvdfrm/UnityEngine.UnityWebRequestAssetBundleModule.dll_24ECEACD05354D8E.mvfrm
Library/Bee/artifacts/mvdfrm/UnityEngine.UnityWebRequestAudioModule.dll_F145833437E7F352.mvfrm
Library/Bee/artifacts/mvdfrm/UnityEngine.UnityWebRequestModule.dll_27D36A5894BD58E8.mvfrm
Library/Bee/artifacts/mvdfrm/UnityEngine.UnityWebRequestTextureModule.dll_EB9BFB58C1C00767.mvfrm
Library/Bee/artifacts/mvdfrm/UnityEngine.UnityWebRequestWWWModule.dll_86B8B23B202E29A3.mvfrm
Library/Bee/artifacts/mvdfrm/UnityEngine.VFXModule.dll_60A28120789092A0.mvfrm
Library/Bee/artifacts/mvdfrm/UnityEngine.VRModule.dll_666286D175C62D48.mvfrm
Library/Bee/artifacts/mvdfrm/UnityEngine.VehiclesModule.dll_1A8A26594212DD73.mvfrm
Library/Bee/artifacts/mvdfrm/UnityEngine.VideoModule.dll_2849041213534B33.mvfrm
Library/Bee/artifacts/mvdfrm/UnityEngine.VirtualTexturingModule.dll_2D9B20F78FA067D9.mvfrm
Library/Bee/artifacts/mvdfrm/UnityEngine.WindModule.dll_13EED6DE64CA5764.mvfrm
Library/Bee/artifacts/mvdfrm/UnityEngine.XRModule.dll_992149D5FF007AA6.mvfrm
Library/Bee/artifacts/mvdfrm/UnityEngine.dll_ED06E299B3505FAA.mvfrm
Library/Bee/artifacts/mvdfrm/UnityEditor.LinuxStandalone.Extensions.dll_F3C75642A841C600.mvfrm